{
  "name": "becquerel-accordeon",
  "title": "Becquerel Accordéon",
  "category": "widgets",
  "icon": "editor-ul",
  "description": "Simple becquerel accordeon collapsible block.",
  "keywords": ["accordeon", "collapsible", "toggle"],
  "textdomain": "becquerel-accordeon",
  "editorScript": "file:./block/index.js",
  "style": "file:./editor-styles.css"
}
